Sirichai Thaworn        |0812345678
Panita Wattanapan       |0891234567
Chatchai Pongsan        |0923456789
Warisara Rodchai        |0956781234
Paween Narongrit        |0978123456
Narong Aroonrat         |0901234567
Kritsada Wongkong       |0845678912
Kanokwan Jitnaka        |0834567890
Suchada Arunthong       |0823456712
Chatchawan Sukpan       |0805671234
Wichai Tangmo           |0881234509
Lalita Prapha           |0876789123
Sarawut Jaisue          |0865432190
Naree Chanchai          |0856789456
Wattana Singchai        |0841230987
Somsak Prajan           |0835678901
Waranya Poonsawat       |0823459087
Sirima Intanin          |0812345098
Kittipong Ruangchai     |0909876543
Pongpan Narumit         |0898765432
Jiraporn Saengsawang    |0887654321
Tanakorn Chaiwat        |0876543210
Saowanee Somchai        |0865432109
Nattapong Wanida        |0854321098
Wannasorn Panya         |0843210987
Preecha Panthong        |0832109876
Chanida Thiparat        |0821098765
Nattaya Changchai       |0810987654
Waraporn Sittichai      |0909871234
Manee Samai             |0898765123
Sasithorn Panthip       |0887654123
Phanomwan Aree          |0876543129
Pawitra Phanit          |0865432910
Kanchana Sudarat        |0854321890
Chanakan Chalita        |0843218901
Nirut Taweekit          |0832189012
Nongyao Wattanee        |0821890123
Chalermchai Kritsada    |0818901234
Suchaya Narumol         |0901234876
Panuwat Thiti           |0891234876
Nareerat Anuwat         |0881234786
Wanchai Thongchai       |0871234789
Narumon Phairoj         |0861234798
Rungsun Wannachai       |0851234987
Krittaporn Panich       |0841234978
Sawitree Prasert        |0831234897
Somchai Wattanarat      |0821345987
Somrak Pongpan          |0813456782
Noppawan Chanchai       |0805678923