STUID    YEAR GRADE
10001    2020  3.33
         2021  3.00
         2022  3.00
TOTAL   10001  3.11
STUID    YEAR GRADE
10002    2020  3.00
         2021  3.00
         2022  3.33
TOTAL   10002  3.11
STUID    YEAR GRADE
10003    2020  3.00
         2021  3.00
         2022  3.66
TOTAL   10003  3.22
STUID    YEAR GRADE
10004    2020  3.00
         2021  3.33
         2022  3.00
TOTAL   10004  3.11
STUID    YEAR GRADE
10005    2020  2.66
         2021  3.66
         2022  3.00
TOTAL   10005  3.11
